{
  "project_info": {
    "project_number": "852071129629",
    "project_id": "firebase-halla"
  },
  "client": [
    {
      "client_info": {
        "mobilesdk_app_id": "1:852071129629:android:c0626523c5853d96",
        "android_client_info": {
          "package_name": "com.achieveee.hallaexpress"
        }
      },
      "oauth_client": [
        {
          "client_id": "852071129629-037uqtn86tvsq83vfejv7v0p0letkdka.apps.googleusercontent.com",
          "client_type": 1,
          "android_info": {
            "package_name": "com.achieveee.hallaexpress",
            "certificate_hash": "3EEB583F05F55FEF802F571750B05363AE79201E"
          }
        },
        {
          "client_id": "852071129629-qgslf4m7rslseg5nv922htg8v7qaoc8r.apps.googleusercontent.com",
          "client_type": 3
        }
      ],
      "api_key": [
        {
          "current_key": "AIzaSyBrwI_2VmLFQSC_Y2ooON_tL-9H4gRAzWU"
        }
      ],
      "services": {
        "analytics_service": {
          "status": 1
        },
        "appinvite_service": {
          "status": 1,
          "other_platform_oauth_client": []
        },
        "ads_service": {
          "status": 1
        }
      }
    }
  ],
  "configuration_version": "1"
}